module gitlab.com/thedahv/jq-live

require (
	9fans.net/go v0.0.0-20180727211846-5d4fa602e1e8 // indirect
	github.com/alecthomas/gometalinter v2.0.11+incompatible // indirect
	github.com/alecthomas/units v0.0.0-20151022065526-2efee857e7cf // indirect
	github.com/cosiner/argv v0.0.0-20170225145430-13bacc38a0a5 // indirect
	github.com/davidrjenni/reftools v0.0.0-20180914123528-654d0ba4f96d // indirect
	github.com/derekparker/delve v1.1.0 // indirect
	github.com/fatih/gomodifytags v0.0.0-20180914191908-141225bf62b6 // indirect
	github.com/fatih/motion v0.0.0-20180408211639-218875ebe238 // indirect
	github.com/golang/lint v0.0.0-20180702182130-06c8688daad7 // indirect
	github.com/google/shlex v0.0.0-20150127133951-6f45313302b9 // indirect
	github.com/josharian/impl v0.0.0-20180228163738-3d0f908298c4 // indirect
	github.com/jstemmer/gotags v1.4.1 // indirect
	github.com/kisielk/errcheck v1.1.0 // indirect
	github.com/klauspost/asmfmt v0.0.0-20171230121622-022c51c61cbd // indirect
	github.com/koron/iferr v0.0.0-20180615142939-bb332a3b1d91 // indirect
	github.com/mattn/go-isatty v0.0.4 // indirect
	github.com/mattn/go-runewidth v0.0.3
	github.com/mdempsky/gocode v0.0.0-20180727200127-00e7f5ac290a // indirect
	github.com/nicksnyder/go-i18n v1.10.0 // indirect
	github.com/nsf/termbox-go v0.0.0-20180819125858-b66b20ab708e
	github.com/pelletier/go-toml v1.2.0 // indirect
	github.com/peterh/liner v1.1.0 // indirect
	github.com/rogpeppe/godef v1.0.0 // indirect
	github.com/savaki/jq v0.0.0-20161209013833-0e6baecebbf8 // indirect
	github.com/sirupsen/logrus v1.0.6 // indirect
	github.com/spf13/cobra v0.0.3 // indirect
	github.com/spf13/pflag v1.0.2 // indirect
	github.com/zmb3/gogetdoc v0.0.0-20180522031303-10095872a7c5 // indirect
	golang.org/x/arch v0.0.0-20180516175055-5de9028c2478 // indirect
	golang.org/x/crypto v0.0.0-20180910181607-0e37d006457b // indirect
	golang.org/x/exp v0.0.0-20180907224206-e88728d35e99 // indirect
	golang.org/x/lint v0.0.0-20180702182130-06c8688daad7 // indirect
	golang.org/x/sys v0.0.0-20180909124046-d0be0721c37e // indirect
	golang.org/x/tools v0.0.0-20180911133044-677d2ff680c1 // indirect
	gopkg.in/alecthomas/kingpin.v3-unstable v3.0.0-20180810215634-df19058c872c // indirect
	gopkg.in/yaml.v2 v2.2.1 // indirect
	honnef.co/go/tools v0.0.0-20180728063816-88497007e858 // indirect
)
